<svg xmlns="http://www.w3.org/2000/svg" width="21.246" height="40.196" viewBox="0 0 21.246 40.196">
  <g id="noun_Arrow_3134195" transform="translate(0 0)">
    <path id="Path_6644" data-name="Path 6644" d="M44.409,39.792a1.141,1.141,0,0,1-.8.337,1.1,1.1,0,0,1-.8-.337L23.859,20.848a1.129,1.129,0,0,1,0-1.607L42.8.293A1.137,1.137,0,1,1,44.409,1.9L26.269,20.045l18.14,18.14a1.133,1.133,0,0,1,0,1.607Z" transform="translate(-23.523 0.067)" fill="#fff"/>
  </g>
</svg>
